EXERCISE: FINAL ANALYSIS
…
activities_long

## # A tibble: 2,078 × 4
##       id study_interval day_in_study activity_types
##    <int>          <int>        <int> <chr>         
##  1     1           2022            1 Sport         
##  2     1           2022           25 Sport         
##  3     1           2022           33 Walk          
##  4     1           2022           34 Walk          
##  5     1           2022           38 Walk          
##  6     1           2022           39 Walk          
##  7     1           2022           40 Walk          
##  8     1           2022           41 Walk          
##  9     1           2022           44 Outdoor Bike  
## 10     1           2022           44 Walk          
## # ℹ 2,068 more rows
…
