hormone
…
fatigue_summary

## # A tibble: 4 × 4
##   phase          n avg_fatigue avg_moodswing
##   <fct>      <int>       <dbl>         <dbl>
## 1 Follicular  1386        2.26          3.41
## 2 Fertility   1281        2.25          3.49
## 3 Luteal      1912        2.21          3.58
## 4 Menstrual   1079        2.33          3.11

mood_summary

## # A tibble: 28 × 4
## # Groups:   phase [4]
##    phase      moodswing           n percentage
##    <fct>      <fct>           <int>      <dbl>
##  1 Follicular Very Low/Little   208      15.0 
##  2 Follicular Low               146      10.5 
##  3 Follicular Moderate          140      10.1 
##  4 Follicular High               53       3.82
##  5 Follicular Very High          21       1.52
##  6 Follicular Not at all        271      19.6 
##  7 Follicular <NA>              547      39.5 
##  8 Fertility  Very Low/Little   175      13.7 
##  9 Fertility  Low               112       8.74
## 10 Fertility  Moderate          128       9.99
## # ℹ 18 more rows
…
fatigue_summary

## # A tibble: 4 × 4
##   phase          n avg_fatigue avg_moodswing
##   <fct>      <int>       <dbl>         <dbl>
## 1 Follicular   603        2.26          3.36
## 2 Fertility    507        2.25          3.34
## 3 Luteal       811        2.21          3.53
## 4 Menstrual    482        2.32          3.17

mood_summary

## # A tibble: 24 × 4
## # Groups:   phase [4]
##    phase      moodswing           n percentage
##    <fct>      <fct>           <int>      <dbl>
##  1 Follicular Very Low/Little   116      19.2 
##  2 Follicular Low               127      21.1 
##  3 Follicular Moderate          126      20.9 
##  4 Follicular High               53       8.79
##  5 Follicular Very High          20       3.32
##  6 Follicular Not at all        161      26.7 
##  7 Fertility  Very Low/Little    95      18.7 
##  8 Fertility  Low               103      20.3 
##  9 Fertility  Moderate          115      22.7 
## 10 Fertility  High               54      10.7 
## # ℹ 14 more rows
…
